<?xml version="1.0" encoding="UTF-8" standalone="no"?>
<!-- Generator: Adobe Illustrator 16.0.0, SVG Export Plug-In . SVG Version: 6.00 Build 0)  -->

<svg
   xmlns:dc="http://purl.org/dc/elements/1.1/"
   xmlns:cc="http://creativecommons.org/ns#"
   xmlns:rdf="http://www.w3.org/1999/02/22-rdf-syntax-ns#"
   xmlns:svg="http://www.w3.org/2000/svg"
   xmlns="http://www.w3.org/2000/svg"
   xmlns:sodipodi="http://sodipodi.sourceforge.net/DTD/sodipodi-0.dtd"
   xmlns:inkscape="http://www.inkscape.org/namespaces/inkscape"
   version="1.1"
   id="YOUR_ARTWORK_HERE"
   x="0px"
   y="0px"
   width="1314px"
   height="1314px"
   viewBox="0 0 1314 1314"
   enable-background="new 0 0 1314 1314"
   xml:space="preserve"
   inkscape:version="0.91 r13725"
   sodipodi:docname="map.svg"><metadata
     id="metadata511"><rdf:RDF><cc:Work
         rdf:about=""><dc:format>image/svg+xml</dc:format><dc:type
           rdf:resource="http://purl.org/dc/dcmitype/StillImage" /><dc:title /></cc:Work></rdf:RDF></metadata><defs
     id="defs509"><clipPath
       clipPathUnits="userSpaceOnUse"
       id="clipPath11465-36-9"><path
         inkscape:connector-curvature="0"
         d="M 0,162 738,162 738,0 0,0 0,162 Z"
         id="path11467-7-1" /></clipPath><clipPath
       clipPathUnits="userSpaceOnUse"
       id="clipPath11465-36-6"><path
         inkscape:connector-curvature="0"
         d="M 0,162 738,162 738,0 0,0 0,162 Z"
         id="path11467-7-40" /></clipPath><clipPath
       clipPathUnits="userSpaceOnUse"
       id="clipPath11465-36-06"><path
         inkscape:connector-curvature="0"
         d="M 0,162 738,162 738,0 0,0 0,162 Z"
         id="path11467-7-8" /></clipPath><clipPath
       clipPathUnits="userSpaceOnUse"
       id="clipPath11465-36-0"><path
         inkscape:connector-curvature="0"
         d="M 0,162 738,162 738,0 0,0 0,162 Z"
         id="path11467-7-7" /></clipPath><clipPath
       clipPathUnits="userSpaceOnUse"
       id="clipPath11465-36-4"><path
         inkscape:connector-curvature="0"
         d="M 0,162 738,162 738,0 0,0 0,162 Z"
         id="path11467-7-3" /></clipPath><clipPath
       clipPathUnits="userSpaceOnUse"
       id="clipPath11465-36-7"><path
         inkscape:connector-curvature="0"
         d="M 0,162 738,162 738,0 0,0 0,162 Z"
         id="path11467-7-4" /></clipPath><clipPath
       clipPathUnits="userSpaceOnUse"
       id="clipPath11465-36"><path
         inkscape:connector-curvature="0"
         d="M 0,162 738,162 738,0 0,0 0,162 Z"
         id="path11467-7" /></clipPath></defs><sodipodi:namedview
     pagecolor="#ffffff"
     bordercolor="#666666"
     borderopacity="1"
     objecttolerance="10"
     gridtolerance="10"
     guidetolerance="10"
     inkscape:pageopacity="0"
     inkscape:pageshadow="2"
     inkscape:window-width="1920"
     inkscape:window-height="1056"
     id="namedview507"
     showgrid="false"
     inkscape:snap-bbox="true"
     inkscape:bbox-nodes="true"
     inkscape:snap-page="true"
     showguides="false"
     inkscape:guide-bbox="true"
     inkscape:zoom="0.69939117"
     inkscape:cx="657"
     inkscape:cy="657"
     inkscape:window-x="1920"
     inkscape:window-y="24"
     inkscape:window-maximized="1"
     inkscape:current-layer="YOUR_ARTWORK_HERE"><sodipodi:guide
       position="26.988001,1287.012"
       orientation="1,0"
       id="guide3698" /><sodipodi:guide
       position="26.988001,1287.012"
       orientation="0,1"
       id="guide3700" /><sodipodi:guide
       position="1287.012,26.988037"
       orientation="0,1"
       id="guide3702" /><sodipodi:guide
       position="1287.012,26.988037"
       orientation="1,0"
       id="guide3704" /></sodipodi:namedview><rect
     style="display:inline;fill:#ffeeaa;fill-opacity:1;stroke:none;stroke-width:1.00000024;stroke-miterlimit:4;stroke-dasharray:none;stroke-opacity:1"
     id="rect4698-3-8-6-9-5"
     width="1314"
     height="1314"
     x="-1314"
     y="0"
     transform="scale(-1,1)" /><rect
     style="display:inline;fill:#784421;fill-opacity:1;stroke:none;stroke-width:1.00000012;stroke-miterlimit:4;stroke-dasharray:none;stroke-opacity:1"
     id="rect4698-3-8-4-3-3"
     width="152.99046"
     height="126.0024"
     x="-1314"
     y="656.99994"
     transform="scale(-1,1)" /><rect
     style="display:inline;fill:#784421;fill-opacity:1;stroke:#000000;stroke-width:1.00000012;stroke-miterlimit:4;stroke-dasharray:none;stroke-opacity:1"
     id="rect4698-3-8-4-3"
     width="152.99046"
     height="126.0024"
     x="-152.99046"
     y="152.99037"
     transform="scale(-1,1)" /><rect
     style="color:#000000;clip-rule:nonzero;display:inline;overflow:visible;visibility:visible;opacity:1;isolation:auto;mix-blend-mode:normal;color-interpolation:sRGB;color-interpolation-filters:linearRGB;solid-color:#000000;solid-opacity:1;fill:#0000ff;fill-opacity:1;fill-rule:nonzero;stroke:none;stroke-width:2;stroke-linecap:butt;stroke-linejoin:miter;stroke-miterlimit:4;stroke-dasharray:none;stroke-dashoffset:0;stroke-opacity:1;color-rendering:auto;image-rendering:auto;shape-rendering:auto;text-rendering:auto;enable-background:accumulate"
     id="rect4470"
     width="152.99046"
     height="152.99039"
     x="-1.4210855e-14"
     y="3.5527137e-14" /><rect
     style="display:inline;fill:#808080;fill-opacity:1;stroke:none;stroke-width:1.00000012;stroke-miterlimit:4;stroke-dasharray:none;stroke-opacity:1"
     id="rect4698-3-8-0-6"
     width="152.99042"
     height="252.00476"
     x="-152.99042"
     y="656.99988"
     transform="scale(-1,1)" /><rect
     style="display:inline;fill:#0000ff;fill-opacity:1;stroke:none;stroke-width:1.00000012;stroke-miterlimit:4;stroke-dasharray:none;stroke-opacity:1"
     id="rect4698-3-8-5-8-7"
     width="152.99042"
     height="126.00234"
     x="-152.99042"
     y="909.00464"
     transform="scale(-1,1)" /><rect
     style="display:inline;fill:#808080;fill-opacity:1;stroke:none;stroke-width:1.00000012;stroke-miterlimit:4;stroke-dasharray:none;stroke-opacity:1"
     id="rect4698-3-8-0-6-5"
     width="252.00473"
     height="152.99036"
     x="-404.99521"
     y="1161.0096"
     transform="scale(-1,1)" /><rect
     style="display:inline;fill:#808080;fill-opacity:1;stroke:none;stroke-width:1.00000012;stroke-miterlimit:4;stroke-dasharray:none;stroke-opacity:1"
     id="rect4698-3-8-0-6-5-6"
     width="152.99057"
     height="252.0047"
     x="-1314"
     y="404.99524"
     transform="scale(-1,1)" /><rect
     style="display:inline;fill:#0000ff;fill-opacity:1;stroke:none;stroke-width:1.00000012;stroke-miterlimit:4;stroke-dasharray:none;stroke-opacity:1"
     id="rect4698-3-8-5-8-7-2"
     width="152.99042"
     height="126.00234"
     x="-1314"
     y="278.99289"
     transform="scale(-1,1)" /><rect
     style="display:inline;fill:#0000ff;fill-opacity:1;stroke:none;stroke-width:1.00000012;stroke-miterlimit:4;stroke-dasharray:none;stroke-opacity:1"
     id="rect4698-3-8-5-8-7-2-9"
     width="126.00236"
     height="152.99037"
     x="-909.0047"
     y="5.6843419e-14"
     transform="scale(-1,1)" /><rect
     style="display:inline;fill:#784421;fill-opacity:1;stroke:none;stroke-width:1.00000012;stroke-miterlimit:4;stroke-dasharray:none;stroke-opacity:1"
     id="rect4698-3-8-4-3-3-1"
     width="126.00237"
     height="152.99036"
     x="-530.99756"
     y="1161.0096"
     transform="scale(-1,1)" /><text
     xml:space="preserve"
     style="font-style:normal;font-weight:normal;font-size:25px;line-height:125%;font-family:sans-serif;letter-spacing:0px;word-spacing:0px;display:inline;fill:#000000;fill-opacity:1;stroke:none;stroke-width:1px;stroke-linecap:butt;stroke-linejoin:miter;stroke-opacity:1"
     x="-942.95801"
     y="850.58508"
     id="text3802"
     sodipodi:linespacing="125%"><tspan
       sodipodi:role="line"
       id="tspan3804"
       x="-942.95801"
       y="850.58508" /></text>
<rect
     style="display:inline;fill:#0000ff;fill-opacity:1;stroke:#ffffff;stroke-width:1.00000012;stroke-miterlimit:4;stroke-dasharray:none;stroke-opacity:1"
     id="rect4698-2"
     width="126.00234"
     height="126.00237"
     x="-909.00476"
     y="26.988001"
     transform="scale(-1,1)" /><rect
     style="display:inline;fill:#0000ff;fill-opacity:1;stroke:#ffffff;stroke-width:0.99999994;stroke-miterlimit:4;stroke-dasharray:none;stroke-opacity:1"
     id="rect4698-2-9"
     width="126.00234"
     height="126.0024"
     x="-909.00476"
     y="152.99037"
     transform="scale(-1,1)" /><rect
     style="display:inline;fill:#0000ff;fill-opacity:1;stroke:#ffffff;stroke-width:1.00000012;stroke-miterlimit:4;stroke-dasharray:none;stroke-opacity:1"
     id="rect4698-3-2"
     width="126.00243"
     height="126.0024"
     x="-783.00232"
     y="152.99043"
     transform="scale(-1,1)" /><rect
     style="display:inline;fill:#0000ff;fill-opacity:1;stroke:#ffffff;stroke-width:1.00000012;stroke-miterlimit:4;stroke-dasharray:none;stroke-opacity:1"
     id="rect4698-7"
     width="126.00256"
     height="126.00243"
     x="-1287.012"
     y="278.9928"
     transform="scale(-1,1)" /><rect
     style="display:inline;fill:#0000ff;fill-opacity:1;stroke:#ffffff;stroke-width:1.00000012;stroke-miterlimit:4;stroke-dasharray:none;stroke-opacity:1"
     id="rect4698-5-30"
     width="126.00239"
     height="126.00243"
     x="-1161.0095"
     y="278.9928"
     transform="scale(-1,1)" /><rect
     style="display:inline;fill:#0000ff;fill-opacity:1;stroke:#ffffff;stroke-width:1.00000012;stroke-miterlimit:4;stroke-dasharray:none;stroke-opacity:1"
     id="rect4698-3-29"
     width="126.00243"
     height="126.00243"
     x="-783.00232"
     y="278.9928"
     transform="scale(-1,1)" /><rect
     style="display:inline;fill:#0000ff;fill-opacity:1;stroke:#ffffff;stroke-width:1.00000012;stroke-miterlimit:4;stroke-dasharray:none;stroke-opacity:1"
     id="rect4698-5-2"
     width="126.00239"
     height="126.00233"
     x="-1161.0095"
     y="404.99518"
     transform="scale(-1,1)" /><rect
     style="display:inline;fill:#0000ff;fill-opacity:1;stroke:#ffffff;stroke-width:0.99999994;stroke-miterlimit:4;stroke-dasharray:none;stroke-opacity:1"
     id="rect4698-1-3"
     width="126.0024"
     height="126.00233"
     x="-1035.0071"
     y="404.99518"
     transform="scale(-1,1)" /><rect
     style="display:inline;fill:#0000ff;fill-opacity:1;stroke:#ffffff;stroke-width:0.99999994;stroke-miterlimit:4;stroke-dasharray:none;stroke-opacity:1"
     id="rect4698-2-68"
     width="126.00234"
     height="126.00233"
     x="-909.00476"
     y="404.99518"
     transform="scale(-1,1)" /><rect
     style="display:inline;fill:#0000ff;fill-opacity:1;stroke:#ffffff;stroke-width:1.00000012;stroke-miterlimit:4;stroke-dasharray:none;stroke-opacity:1"
     id="rect4698-3-0"
     width="126.0024"
     height="126.00233"
     x="-783.00232"
     y="404.99518"
     transform="scale(-1,1)" /><rect
     style="display:inline;fill:#0000ff;fill-opacity:1;stroke:#ffffff;stroke-width:1.00000012;stroke-miterlimit:4;stroke-dasharray:none;stroke-opacity:1"
     id="rect4698-54-3"
     width="126.00237"
     height="126.00233"
     x="-656.99994"
     y="404.99518"
     transform="scale(-1,1)" /><rect
     style="display:inline;fill:#0000ff;fill-opacity:1;stroke:#ffffff;stroke-width:0.99999994;stroke-miterlimit:4;stroke-dasharray:none;stroke-opacity:1"
     id="rect4698-1-7-7"
     width="126.0024"
     height="126.00233"
     x="-404.99521"
     y="404.99518"
     transform="scale(-1,1)" /><rect
     style="display:inline;fill:#0000ff;fill-opacity:1;stroke:#ffffff;stroke-width:1.00000012;stroke-miterlimit:4;stroke-dasharray:none;stroke-opacity:1"
     id="rect4698-2-6-7"
     width="126.00241"
     height="126.00233"
     x="-278.99283"
     y="404.99518"
     transform="scale(-1,1)" /><rect
     style="display:inline;fill:#0000ff;fill-opacity:1;stroke:#ffffff;stroke-width:0.99999994;stroke-miterlimit:4;stroke-dasharray:none;stroke-opacity:1"
     id="rect4698-2-6-2"
     width="126.00241"
     height="126.00239"
     x="-278.99283"
     y="530.99756"
     transform="scale(-1,1)" /><rect
     style="display:inline;fill:#0000ff;fill-opacity:1;stroke:#ffffff;stroke-width:1.00000012;stroke-miterlimit:4;stroke-dasharray:none;stroke-opacity:1"
     id="rect4698-2-6-5"
     width="126.00241"
     height="126.0024"
     x="-278.99283"
     y="656.99994"
     transform="scale(-1,1)" /><rect
     style="display:inline;fill:#0000ff;fill-opacity:1;stroke:#ffffff;stroke-width:1.00000012;stroke-miterlimit:4;stroke-dasharray:none;stroke-opacity:1"
     id="rect4698-2-6-1-9"
     width="126.00241"
     height="126.0024"
     x="-278.99283"
     y="783.00232"
     transform="scale(-1,1)" /><rect
     style="display:inline;fill:#0000ff;fill-opacity:1;stroke:#ffffff;stroke-width:1.00000012;stroke-miterlimit:4;stroke-dasharray:none;stroke-opacity:1"
     id="rect4698-2-6-9-1"
     width="126.00241"
     height="126.0024"
     x="-278.99283"
     y="909.0047"
     transform="scale(-1,1)" /><rect
     style="display:inline;fill:#0000ff;fill-opacity:1;stroke:#ffffff;stroke-width:1.00000012;stroke-miterlimit:4;stroke-dasharray:none;stroke-opacity:1"
     id="rect4698-3-8-5-8"
     width="122.82433"
     height="126.00234"
     x="-152.99046"
     y="909.00476"
     transform="scale(-1,1)" /><rect
     style="display:inline;fill:#0000ff;fill-opacity:1;stroke:#ffffff;stroke-width:1.00000012;stroke-miterlimit:4;stroke-dasharray:none;stroke-opacity:1"
     id="rect4698-5-2-7"
     width="126.00239"
     height="126.00237"
     x="-1161.0095"
     y="1035.0072"
     transform="scale(-1,1)" /><rect
     style="display:inline;fill:#ffeeaa;fill-opacity:1;stroke:#000000;stroke-width:1.00000012;stroke-miterlimit:4;stroke-dasharray:none;stroke-opacity:1"
     id="rect4698-5"
     width="126.00239"
     height="126.00237"
     x="-1161.0095"
     y="26.988001"
     transform="scale(-1,1)" /><rect
     style="display:inline;fill:#ffeeaa;fill-opacity:1;stroke:#000000;stroke-width:1.00000012;stroke-miterlimit:4;stroke-dasharray:none;stroke-opacity:1"
     id="rect4698-54"
     width="126.00237"
     height="126.00239"
     x="-656.99994"
     y="26.988001"
     transform="scale(-1,1)" /><rect
     style="display:inline;fill:#ffeeaa;fill-opacity:1;stroke:#000000;stroke-width:0.99999994;stroke-miterlimit:4;stroke-dasharray:none;stroke-opacity:1"
     id="rect4698-5-3"
     width="126.00244"
     height="126.00237"
     x="-530.99756"
     y="26.988001"
     transform="scale(-1,1)" /><rect
     style="display:inline;fill:#ffeeaa;fill-opacity:1;stroke:#000000;stroke-width:1.00000012;stroke-miterlimit:4;stroke-dasharray:none;stroke-opacity:1"
     id="rect4698-1-7"
     width="126.0024"
     height="126.00239"
     x="-404.99521"
     y="26.988001"
     transform="scale(-1,1)" /><rect
     style="display:inline;fill:#ffeeaa;fill-opacity:1;stroke:#000000;stroke-width:1.00000012;stroke-miterlimit:4;stroke-dasharray:none;stroke-opacity:1"
     id="rect4698-2-6"
     width="126.00241"
     height="126.00237"
     x="-278.99283"
     y="26.988001"
     transform="scale(-1,1)" /><rect
     style="display:inline;fill:#0000ff;fill-opacity:1;stroke:#ffffff;stroke-width:1.00000012;stroke-miterlimit:4;stroke-dasharray:none;stroke-opacity:1"
     id="rect4698-3-8"
     width="122.82433"
     height="126.00239"
     x="-152.99046"
     y="26.988001"
     transform="scale(-1,1)" /><rect
     style="display:inline;fill:#ffeeaa;fill-opacity:1;stroke:#000000;stroke-width:1.00000012;stroke-miterlimit:4;stroke-dasharray:none;stroke-opacity:1"
     id="rect4698-52"
     width="126.00246"
     height="126.0024"
     x="-1287.0118"
     y="152.99037"
     transform="scale(-1,1)" /><rect
     style="display:inline;fill:#ffeeaa;fill-opacity:1;stroke:#000000;stroke-width:1.00000012;stroke-miterlimit:4;stroke-dasharray:none;stroke-opacity:1"
     id="rect4698-5-9"
     width="126.00239"
     height="126.0024"
     x="-1161.0095"
     y="152.99037"
     transform="scale(-1,1)" /><rect
     style="display:inline;fill:#784421;fill-opacity:1;stroke:#000000;stroke-width:0.99999982;stroke-miterlimit:4;stroke-dasharray:none;stroke-opacity:1"
     id="rect4698-5-3-6"
     width="126.00239"
     height="126.00243"
     x="-530.99756"
     y="152.99037"
     transform="scale(-1,1)" /><rect
     style="display:inline;fill:#784421;fill-opacity:1;stroke:#000000;stroke-width:0.99999994;stroke-miterlimit:4;stroke-dasharray:none;stroke-opacity:1"
     id="rect4698-1-7-3"
     width="126.0024"
     height="126.0024"
     x="-404.99521"
     y="152.99037"
     transform="scale(-1,1)" /><rect
     style="display:inline;fill:#784421;fill-opacity:1;stroke:#000000;stroke-width:1.00000012;stroke-miterlimit:4;stroke-dasharray:none;stroke-opacity:1"
     id="rect4698-2-6-1"
     width="126.00241"
     height="126.0024"
     x="-278.99283"
     y="152.99037"
     transform="scale(-1,1)" /><rect
     style="display:inline;fill:#784421;fill-opacity:1;stroke:#000000;stroke-width:1.00000012;stroke-miterlimit:4;stroke-dasharray:none;stroke-opacity:1"
     id="rect4698-3-8-4"
     width="122.82433"
     height="126.0024"
     x="-152.99046"
     y="152.99037"
     transform="scale(-1,1)" /><rect
     style="display:inline;fill:#ffeeaa;fill-opacity:1;stroke:#000000;stroke-width:1.00000012;stroke-miterlimit:4;stroke-dasharray:none;stroke-opacity:1"
     id="rect4698-1-6"
     width="126.0024"
     height="126.00243"
     x="-1035.0071"
     y="278.9928"
     transform="scale(-1,1)" /><rect
     style="display:inline;fill:#ffeeaa;fill-opacity:1;stroke:#000000;stroke-width:0.99999994;stroke-miterlimit:4;stroke-dasharray:none;stroke-opacity:1"
     id="rect4698-2-8"
     width="126.00234"
     height="126.00243"
     x="-909.00476"
     y="278.9928"
     transform="scale(-1,1)" /><rect
     style="display:inline;fill:#784421;fill-opacity:1;stroke:#000000;stroke-width:0.99999994;stroke-miterlimit:4;stroke-dasharray:none;stroke-opacity:1"
     id="rect4698-5-3-4"
     width="126.00236"
     height="126.00243"
     x="-530.99756"
     y="278.9928"
     transform="scale(-1,1)" /><rect
     style="display:inline;fill:#ffeeaa;fill-opacity:1;stroke:#000000;stroke-width:1.00000012;stroke-miterlimit:4;stroke-dasharray:none;stroke-opacity:1"
     id="rect4698-3-8-5"
     width="122.82433"
     height="126.00243"
     x="-152.99046"
     y="278.9928"
     transform="scale(-1,1)" /><rect
     style="display:inline;fill:#808080;fill-opacity:1;stroke:#000000;stroke-width:1.00000012;stroke-miterlimit:4;stroke-dasharray:none;stroke-opacity:1"
     id="rect4698-0"
     width="126.00246"
     height="126.00233"
     x="-1287.0118"
     y="404.99518"
     transform="scale(-1,1)" /><rect
     style="display:inline;fill:#784421;fill-opacity:1;stroke:#000000;stroke-width:1.00000012;stroke-miterlimit:4;stroke-dasharray:none;stroke-opacity:1"
     id="rect4698-5-3-66"
     width="126.00239"
     height="126.00234"
     x="-530.99756"
     y="404.99518"
     transform="scale(-1,1)" /><rect
     style="display:inline;fill:#ffeeaa;fill-opacity:1;stroke:#000000;stroke-width:1.00000012;stroke-miterlimit:4;stroke-dasharray:none;stroke-opacity:1"
     id="rect4698-3-8-6"
     width="122.82433"
     height="126.00233"
     x="-152.99046"
     y="404.99518"
     transform="scale(-1,1)" /><rect
     style="display:inline;fill:#808080;fill-opacity:1;stroke:#000000;stroke-width:1.00000012;stroke-miterlimit:4;stroke-dasharray:none;stroke-opacity:1"
     id="rect4698-6"
     width="126.00246"
     height="126.00239"
     x="-1287.0118"
     y="530.99756"
     transform="scale(-1,1)" /><rect
     style="display:inline;fill:#808080;fill-opacity:1;stroke:#000000;stroke-width:1.00000012;stroke-miterlimit:4;stroke-dasharray:none;stroke-opacity:1"
     id="rect4698-5-28"
     width="126.00239"
     height="126.00239"
     x="-1161.0095"
     y="530.99756"
     transform="scale(-1,1)" /><rect
     style="display:inline;fill:#ffeeaa;fill-opacity:1;stroke:#000000;stroke-width:1.00000012;stroke-miterlimit:4;stroke-dasharray:none;stroke-opacity:1"
     id="rect4698-1-5"
     width="126.0024"
     height="126.00239"
     x="-1035.0071"
     y="530.99756"
     transform="scale(-1,1)" /><rect
     style="display:inline;fill:#ffeeaa;fill-opacity:1;stroke:#000000;stroke-width:0.99999994;stroke-miterlimit:4;stroke-dasharray:none;stroke-opacity:1"
     id="rect4698-2-7"
     width="126.00234"
     height="126.00239"
     x="-909.00476"
     y="530.99756"
     transform="scale(-1,1)" /><rect
     style="display:inline;fill:#ffeeaa;fill-opacity:1;stroke:#000000;stroke-width:0.99999994;stroke-miterlimit:4;stroke-dasharray:none;stroke-opacity:1"
     id="rect4698-3-1"
     width="126.00243"
     height="126.00239"
     x="-783.00232"
     y="530.99756"
     transform="scale(-1,1)" /><rect
     style="display:inline;fill:#ffeeaa;fill-opacity:1;stroke:#000000;stroke-width:0.99999994;stroke-miterlimit:4;stroke-dasharray:none;stroke-opacity:1"
     id="rect4698-54-9"
     width="126.00237"
     height="126.00239"
     x="-656.99994"
     y="530.99756"
     transform="scale(-1,1)" /><rect
     style="display:inline;fill:#784421;fill-opacity:1;stroke:#000000;stroke-width:1.00000012;stroke-miterlimit:4;stroke-dasharray:none;stroke-opacity:1"
     id="rect4698-5-3-64"
     width="126.00241"
     height="126.00246"
     x="-530.99756"
     y="530.99756"
     transform="scale(-1,1)" /><rect
     style="display:inline;fill:#ffeeaa;fill-opacity:1;stroke:#000000;stroke-width:1.00000012;stroke-miterlimit:4;stroke-dasharray:none;stroke-opacity:1"
     id="rect4698-1-7-1"
     width="126.0024"
     height="126.00239"
     x="-404.99521"
     y="530.99756"
     transform="scale(-1,1)" /><rect
     style="display:inline;fill:#784421;fill-opacity:1;stroke:#000000;stroke-width:1.00000012;stroke-miterlimit:4;stroke-dasharray:none;stroke-opacity:1"
     id="rect4698-527"
     width="126.00246"
     height="126.0024"
     x="-1287.0118"
     y="656.99994"
     transform="scale(-1,1)" /><rect
     style="display:inline;fill:#784421;fill-opacity:1;stroke:#000000;stroke-width:1.00000012;stroke-miterlimit:4;stroke-dasharray:none;stroke-opacity:1"
     id="rect4698-5-98"
     width="126.00239"
     height="126.0024"
     x="-1161.0095"
     y="656.99994"
     transform="scale(-1,1)" /><rect
     style="display:inline;fill:#784421;fill-opacity:1;stroke:#000000;stroke-width:1.00000012;stroke-miterlimit:4;stroke-dasharray:none;stroke-opacity:1"
     id="rect4698-1-66"
     width="126.0024"
     height="126.0024"
     x="-1035.0071"
     y="656.99994"
     transform="scale(-1,1)" /><rect
     style="display:inline;fill:#784421;fill-opacity:1;stroke:#000000;stroke-width:1.00000012;stroke-miterlimit:4;stroke-dasharray:none;stroke-opacity:1"
     id="rect4698-2-1"
     width="126.00234"
     height="126.0024"
     x="-909.00476"
     y="656.99994"
     transform="scale(-1,1)" /><rect
     style="display:inline;fill:#784421;fill-opacity:1;stroke:#000000;stroke-width:1.00000012;stroke-miterlimit:4;stroke-dasharray:none;stroke-opacity:1"
     id="rect4698-3-81"
     width="126.00243"
     height="126.0024"
     x="-783.00232"
     y="656.99994"
     transform="scale(-1,1)" /><rect
     style="display:inline;fill:#784421;fill-opacity:1;stroke:#000000;stroke-width:1.00000012;stroke-miterlimit:4;stroke-dasharray:none;stroke-opacity:1"
     id="rect4698-54-7"
     width="126.00237"
     height="126.0024"
     x="-656.99994"
     y="656.99994"
     transform="scale(-1,1)" /><rect
     style="display:inline;fill:#784421;fill-opacity:1;stroke:#000000;stroke-width:0.99999994;stroke-miterlimit:4;stroke-dasharray:none;stroke-opacity:1"
     id="rect4698-5-3-62"
     width="126.00236"
     height="126.0024"
     x="-530.99756"
     y="656.99994"
     transform="scale(-1,1)" /><rect
     style="display:inline;fill:#ffeeaa;fill-opacity:1;stroke:#000000;stroke-width:0.99999994;stroke-miterlimit:4;stroke-dasharray:none;stroke-opacity:1"
     id="rect4698-1-7-2"
     width="126.0024"
     height="126.0024"
     x="-404.99521"
     y="656.99994"
     transform="scale(-1,1)" /><rect
     style="display:inline;fill:#808080;fill-opacity:1;stroke:#000000;stroke-width:1.00000012;stroke-miterlimit:4;stroke-dasharray:none;stroke-opacity:1"
     id="rect4698-3-8-0"
     width="122.82433"
     height="126.00233"
     x="-152.99046"
     y="657.00006"
     transform="scale(-1,1)" /><rect
     style="display:inline;fill:#ffeeaa;fill-opacity:1;stroke:#000000;stroke-width:1.00000012;stroke-miterlimit:4;stroke-dasharray:none;stroke-opacity:1"
     id="rect4698-52-9"
     width="126.00246"
     height="126.0024"
     x="-1287.0118"
     y="783.00232"
     transform="scale(-1,1)" /><rect
     style="display:inline;fill:#ffeeaa;fill-opacity:1;stroke:#000000;stroke-width:1.00000012;stroke-miterlimit:4;stroke-dasharray:none;stroke-opacity:1"
     id="rect4698-5-9-4"
     width="126.00239"
     height="126.0024"
     x="-1161.0095"
     y="783.00232"
     transform="scale(-1,1)" /><rect
     style="display:inline;fill:#ffeeaa;fill-opacity:1;stroke:#000000;stroke-width:1.00000012;stroke-miterlimit:4;stroke-dasharray:none;stroke-opacity:1"
     id="rect4698-1-0-8"
     width="126.0024"
     height="126.0024"
     x="-1035.0071"
     y="783.00232"
     transform="scale(-1,1)" /><rect
     style="display:inline;fill:#ffeeaa;fill-opacity:1;stroke:#000000;stroke-width:0.99999994;stroke-miterlimit:4;stroke-dasharray:none;stroke-opacity:1"
     id="rect4698-2-9-8"
     width="126.00234"
     height="126.0024"
     x="-909.00476"
     y="783.00232"
     transform="scale(-1,1)" /><rect
     style="display:inline;fill:#784421;fill-opacity:1;stroke:#000000;stroke-width:1.00000012;stroke-miterlimit:4;stroke-dasharray:none;stroke-opacity:1"
     id="rect4698-3-2-8"
     width="126.00243"
     height="126.0024"
     x="-783.00232"
     y="783.00232"
     transform="scale(-1,1)" /><rect
     style="display:inline;fill:#ffeeaa;fill-opacity:1;stroke:#000000;stroke-width:1.00000012;stroke-miterlimit:4;stroke-dasharray:none;stroke-opacity:1"
     id="rect4698-54-0-8"
     width="126.00237"
     height="126.0024"
     x="-656.99994"
     y="783.00232"
     transform="scale(-1,1)" /><rect
     style="display:inline;fill:#ffeeaa;fill-opacity:1;stroke:#000000;stroke-width:0.99999994;stroke-miterlimit:4;stroke-dasharray:none;stroke-opacity:1"
     id="rect4698-5-3-6-3"
     width="126.00236"
     height="126.0024"
     x="-530.99756"
     y="783.00232"
     transform="scale(-1,1)" /><rect
     style="display:inline;fill:#ffeeaa;fill-opacity:1;stroke:#000000;stroke-width:0.99999994;stroke-miterlimit:4;stroke-dasharray:none;stroke-opacity:1"
     id="rect4698-1-7-3-7"
     width="126.0024"
     height="126.0024"
     x="-404.99521"
     y="783.00232"
     transform="scale(-1,1)" /><rect
     style="display:inline;fill:#808080;fill-opacity:1;stroke:#000000;stroke-width:1.00000012;stroke-miterlimit:4;stroke-dasharray:none;stroke-opacity:1"
     id="rect4698-3-8-4-4"
     width="122.82433"
     height="126.0024"
     x="-152.99046"
     y="783.00232"
     transform="scale(-1,1)" /><rect
     style="display:inline;fill:#ffeeaa;fill-opacity:1;stroke:#000000;stroke-width:1.00000012;stroke-miterlimit:4;stroke-dasharray:none;stroke-opacity:1"
     id="rect4698-7-3"
     width="126.00256"
     height="126.00234"
     x="-1287.012"
     y="909.00476"
     transform="scale(-1,1)" /><rect
     style="display:inline;fill:#ffeeaa;fill-opacity:1;stroke:#000000;stroke-width:1.00000012;stroke-miterlimit:4;stroke-dasharray:none;stroke-opacity:1"
     id="rect4698-5-30-3"
     width="126.00239"
     height="126.0024"
     x="-1161.0095"
     y="909.0047"
     transform="scale(-1,1)" /><rect
     style="display:inline;fill:#ffeeaa;fill-opacity:1;stroke:#000000;stroke-width:0.99999994;stroke-miterlimit:4;stroke-dasharray:none;stroke-opacity:1"
     id="rect4698-1-6-5"
     width="126.0024"
     height="126.0024"
     x="-1035.0071"
     y="909.0047"
     transform="scale(-1,1)" /><rect
     style="display:inline;fill:#ffeeaa;fill-opacity:1;stroke:#000000;stroke-width:0.99999994;stroke-miterlimit:4;stroke-dasharray:none;stroke-opacity:1"
     id="rect4698-2-8-6"
     width="126.00234"
     height="126.0024"
     x="-909.00476"
     y="909.0047"
     transform="scale(-1,1)" /><rect
     style="display:inline;fill:#784421;fill-opacity:1;stroke:#000000;stroke-width:1.00000012;stroke-miterlimit:4;stroke-dasharray:none;stroke-opacity:1"
     id="rect4698-3-29-8"
     width="126.00243"
     height="126.0024"
     x="-783.00232"
     y="909.0047"
     transform="scale(-1,1)" /><rect
     style="display:inline;fill:#784421;fill-opacity:1;stroke:#000000;stroke-width:1.00000012;stroke-miterlimit:4;stroke-dasharray:none;stroke-opacity:1"
     id="rect4698-54-2-0"
     width="126.00237"
     height="126.0024"
     x="-656.99994"
     y="909.0047"
     transform="scale(-1,1)" /><rect
     style="display:inline;fill:#ffeeaa;fill-opacity:1;stroke:#000000;stroke-width:0.99999994;stroke-miterlimit:4;stroke-dasharray:none;stroke-opacity:1"
     id="rect4698-5-3-4-8"
     width="126.00236"
     height="126.0024"
     x="-530.99756"
     y="909.0047"
     transform="scale(-1,1)" /><rect
     style="display:inline;fill:#ffeeaa;fill-opacity:1;stroke:#000000;stroke-width:0.99999994;stroke-miterlimit:4;stroke-dasharray:none;stroke-opacity:1"
     id="rect4698-1-7-6-5"
     width="126.0024"
     height="126.0024"
     x="-404.99521"
     y="909.0047"
     transform="scale(-1,1)" /><rect
     style="display:inline;fill:#ffeeaa;fill-opacity:1;stroke:#000000;stroke-width:1.00000012;stroke-miterlimit:4;stroke-dasharray:none;stroke-opacity:1"
     id="rect4698-0-3"
     width="126.00244"
     height="126.00237"
     x="-1287.0118"
     y="1035.0072"
     transform="scale(-1,1)" /><rect
     style="display:inline;fill:#ffeeaa;fill-opacity:1;stroke:#000000;stroke-width:1.00000012;stroke-miterlimit:4;stroke-dasharray:none;stroke-opacity:1"
     id="rect4698-1-3-9"
     width="126.0024"
     height="126.00237"
     x="-1035.0071"
     y="1035.0072"
     transform="scale(-1,1)" /><rect
     style="display:inline;fill:#ffeeaa;fill-opacity:1;stroke:#000000;stroke-width:1.00000012;stroke-miterlimit:4;stroke-dasharray:none;stroke-opacity:1"
     id="rect4698-2-68-4"
     width="126.00234"
     height="126.00237"
     x="-909.00476"
     y="1035.0072"
     transform="scale(-1,1)" /><rect
     style="display:inline;fill:#ffeeaa;fill-opacity:1;stroke:#000000;stroke-width:1.00000012;stroke-miterlimit:4;stroke-dasharray:none;stroke-opacity:1"
     id="rect4698-3-0-9"
     width="126.00243"
     height="126.00237"
     x="-783.00232"
     y="1035.0072"
     transform="scale(-1,1)" /><rect
     style="display:inline;fill:#784421;fill-opacity:1;stroke:#000000;stroke-width:1.00000012;stroke-miterlimit:4;stroke-dasharray:none;stroke-opacity:1"
     id="rect4698-54-3-9"
     width="126.00237"
     height="126.0024"
     x="-656.99994"
     y="1035.0072"
     transform="scale(-1,1)" /><rect
     style="display:inline;fill:#784421;fill-opacity:1;stroke:#000000;stroke-width:0.99999994;stroke-miterlimit:4;stroke-dasharray:none;stroke-opacity:1"
     id="rect4698-5-3-66-2"
     width="126.00236"
     height="126.0024"
     x="-530.99756"
     y="1035.0072"
     transform="scale(-1,1)" /><rect
     style="display:inline;fill:#808080;fill-opacity:1;stroke:#000000;stroke-width:1.00000012;stroke-miterlimit:4;stroke-dasharray:none;stroke-opacity:1"
     id="rect4698-1-7-7-3"
     width="126.0024"
     height="126.00237"
     x="-404.99521"
     y="1035.0072"
     transform="scale(-1,1)" /><rect
     style="display:inline;fill:#808080;fill-opacity:1;stroke:#000000;stroke-width:1.00000012;stroke-miterlimit:4;stroke-dasharray:none;stroke-opacity:1"
     id="rect4698-2-6-7-1"
     width="126.00241"
     height="126.00237"
     x="-278.99283"
     y="1035.0072"
     transform="scale(-1,1)" /><rect
     style="display:inline;fill:#ffeeaa;fill-opacity:1;stroke:#000000;stroke-width:1.00000012;stroke-miterlimit:4;stroke-dasharray:none;stroke-opacity:1"
     id="rect4698-3-8-6-9"
     width="122.82433"
     height="126.00237"
     x="-152.99046"
     y="1035.0072"
     transform="scale(-1,1)" /><rect
     style="display:inline;fill:#ffeeaa;fill-opacity:1;stroke:#000000;stroke-width:0.99999982;stroke-miterlimit:4;stroke-dasharray:none;stroke-opacity:1"
     id="rect4698-6-5"
     width="126.00244"
     height="126.00248"
     x="-1287.0118"
     y="1161.0095"
     transform="scale(-1,1)" /><rect
     style="display:inline;fill:#ffeeaa;fill-opacity:1;stroke:#000000;stroke-width:1.00000012;stroke-miterlimit:4;stroke-dasharray:none;stroke-opacity:1"
     id="rect4698-5-28-1"
     width="126.00239"
     height="126.00248"
     x="-1161.0095"
     y="1161.0095"
     transform="scale(-1,1)" /><rect
     style="display:inline;fill:#ffeeaa;fill-opacity:1;stroke:#000000;stroke-width:0.99999982;stroke-miterlimit:4;stroke-dasharray:none;stroke-opacity:1"
     id="rect4698-1-5-4"
     width="126.0024"
     height="126.00248"
     x="-1035.0071"
     y="1161.0095"
     transform="scale(-1,1)" /><rect
     style="display:inline;fill:#ffeeaa;fill-opacity:1;stroke:#000000;stroke-width:0.99999982;stroke-miterlimit:4;stroke-dasharray:none;stroke-opacity:1"
     id="rect4698-2-7-3"
     width="126.00234"
     height="126.00248"
     x="-909.00476"
     y="1161.0095"
     transform="scale(-1,1)" /><rect
     style="display:inline;fill:#ffeeaa;fill-opacity:1;stroke:#000000;stroke-width:0.99999982;stroke-miterlimit:4;stroke-dasharray:none;stroke-opacity:1"
     id="rect4698-3-1-1"
     width="126.0024"
     height="126.00248"
     x="-783.00232"
     y="1161.0095"
     transform="scale(-1,1)" /><rect
     style="display:inline;fill:#ffeeaa;fill-opacity:1;stroke:#000000;stroke-width:1.00000012;stroke-miterlimit:4;stroke-dasharray:none;stroke-opacity:1"
     id="rect4698-54-9-2"
     width="126.00237"
     height="126.00248"
     x="-656.99994"
     y="1161.0095"
     transform="scale(-1,1)" /><rect
     style="display:inline;fill:#784421;fill-opacity:1;stroke:#000000;stroke-width:0.99999982;stroke-miterlimit:4;stroke-dasharray:none;stroke-opacity:1"
     id="rect4698-5-3-64-1"
     width="126.00236"
     height="126.00248"
     x="-530.99756"
     y="1161.0095"
     transform="scale(-1,1)" /><rect
     style="display:inline;fill:#808080;fill-opacity:1;stroke:#000000;stroke-width:1.00000012;stroke-miterlimit:4;stroke-dasharray:none;stroke-opacity:1"
     id="rect4698-1-7-1-4"
     width="126.0024"
     height="126.00248"
     x="-404.99521"
     y="1161.0095"
     transform="scale(-1,1)" /><rect
     style="display:inline;fill:#808080;fill-opacity:1;stroke:#000000;stroke-width:1.00000012;stroke-miterlimit:4;stroke-dasharray:none;stroke-opacity:1"
     id="rect4698-2-6-2-0"
     width="126.0024"
     height="126.00248"
     x="-278.99283"
     y="1161.0095"
     transform="scale(-1,1)" /><rect
     style="display:inline;fill:#ffeeaa;fill-opacity:1;stroke:#000000;stroke-width:1.00000012;stroke-miterlimit:4;stroke-dasharray:none;stroke-opacity:1"
     id="rect4698-3-8-3-2"
     width="122.82433"
     height="126.00248"
     x="-152.99046"
     y="1161.0095"
     transform="scale(-1,1)" /><rect
     style="display:inline;fill:#ffeeaa;fill-opacity:1;stroke:#000000;stroke-width:1.00000012;stroke-miterlimit:4;stroke-dasharray:none;stroke-opacity:1"
     id="rect4698-3"
     width="126.00241"
     height="126.00237"
     x="-783.00232"
     y="26.988001"
     transform="scale(-1,1)" /><rect
     style="display:inline;fill:#ffeeaa;fill-opacity:1;stroke:#000000;stroke-width:1.00000012;stroke-miterlimit:4;stroke-dasharray:none;stroke-opacity:1"
     id="rect4698-1-0"
     width="126.0024"
     height="126.0024"
     x="-1035.0071"
     y="152.99037"
     transform="scale(-1,1)" /><rect
     style="display:inline;fill:#ffeeaa;fill-opacity:1;stroke:#000000;stroke-width:1.00000012;stroke-miterlimit:4;stroke-dasharray:none;stroke-opacity:1"
     id="rect4698-1"
     width="126.0024"
     height="126.00237"
     x="-1035.0071"
     y="26.988001"
     transform="scale(-1,1)" /><rect
     style="display:inline;fill:#ffeeaa;fill-opacity:1;stroke:#000000;stroke-width:0.99999994;stroke-miterlimit:4;stroke-dasharray:none;stroke-opacity:1"
     id="rect4698-54-2"
     width="126.00232"
     height="126.0024"
     x="-656.99994"
     y="278.9928"
     transform="scale(-1,1)" /><rect
     style="display:inline;fill:#ffeeaa;fill-opacity:1;stroke:#000000;stroke-width:1.00000012;stroke-miterlimit:4;stroke-dasharray:none;stroke-opacity:1"
     id="rect4698-54-0"
     width="126.00237"
     height="126.0024"
     x="-656.99994"
     y="152.99037"
     transform="scale(-1,1)" /><rect
     style="display:inline;fill:#808080;fill-opacity:1;stroke:#000000;stroke-width:0.99999994;stroke-miterlimit:4;stroke-dasharray:none;stroke-opacity:1"
     id="rect4698-1-7-6"
     width="126.0024"
     height="126.00243"
     x="-404.99521"
     y="278.9928"
     transform="scale(-1,1)" /><rect
     style="display:inline;fill:#808080;fill-opacity:1;stroke:#000000;stroke-width:1.00000012;stroke-miterlimit:4;stroke-dasharray:none;stroke-opacity:1"
     id="rect4698-2-6-9"
     width="126.00241"
     height="126.00243"
     x="-278.99283"
     y="278.9928"
     transform="scale(-1,1)" /><rect
     style="display:inline;fill:#ffeeaa;fill-opacity:1;stroke:#000000;stroke-width:1.00000012;stroke-miterlimit:4;stroke-dasharray:none;stroke-opacity:1"
     id="rect4698-3-8-3"
     width="122.82433"
     height="126.00246"
     x="-152.99046"
     y="530.99756"
     transform="scale(-1,1)" /><rect
     style="display:inline;fill:#ffeeaa;fill-opacity:1;stroke:#000000;stroke-width:1.00000012;stroke-miterlimit:4;stroke-dasharray:none;stroke-opacity:1"
     id="rect4698"
     width="126.00246"
     height="126.00237"
     x="-1287.0118"
     y="26.988001"
     transform="scale(-1,1)" /><text
     xml:space="preserve"
     style="font-style:normal;font-weight:normal;font-size:44.80881882px;line-height:125%;font-family:sans-serif;letter-spacing:0px;word-spacing:0px;display:inline;fill:#ffffff;fill-opacity:1;stroke:none;stroke-width:1px;stroke-linecap:butt;stroke-linejoin:miter;stroke-opacity:1"
     x="62.63604"
     y="106.33308"
     id="text3644"
     sodipodi:linespacing="125%"><tspan
       sodipodi:role="line"
       id="tspan3646"
       x="62.63604"
       y="106.33308"
       style="font-style:normal;font-variant:normal;font-weight:normal;font-stretch:normal;font-family:Verdana;-inkscape-font-specification:Verdana;fill:#ffffff">A1</tspan></text>
<text
     xml:space="preserve"
     style="font-style:normal;font-weight:normal;font-size:44.80881882px;line-height:125%;font-family:sans-serif;letter-spacing:0px;word-spacing:0px;display:inline;fill:#ffffff;fill-opacity:1;stroke:none;stroke-width:1px;stroke-linecap:butt;stroke-linejoin:miter;stroke-opacity:1"
     x="73.433472"
     y="232.28072"
     id="text3644-5"
     sodipodi:linespacing="125%"><tspan
       sodipodi:role="line"
       id="tspan3646-4"
       x="73.433472"
       y="232.28072"
       style="font-style:normal;font-variant:normal;font-weight:normal;font-stretch:normal;font-family:Verdana;-inkscape-font-specification:Verdana;fill:#ffffff">B</tspan></text>
<text
     xml:space="preserve"
     style="font-style:normal;font-weight:normal;font-size:44.80881882px;line-height:125%;font-family:sans-serif;letter-spacing:0px;word-spacing:0px;display:inline;fill:#000000;fill-opacity:1;stroke:none;stroke-width:1px;stroke-linecap:butt;stroke-linejoin:miter;stroke-opacity:1"
     x="74.067978"
     y="358.28314"
     id="text3644-4"
     sodipodi:linespacing="125%"><tspan
       sodipodi:role="line"
       id="tspan3646-9"
       x="74.067978"
       y="358.28314"
       style="font-style:normal;font-variant:normal;font-weight:normal;font-stretch:normal;font-family:Verdana;-inkscape-font-specification:Verdana">C</tspan></text>
<text
     xml:space="preserve"
     style="font-style:normal;font-weight:normal;font-size:44.80881882px;line-height:125%;font-family:sans-serif;letter-spacing:0px;word-spacing:0px;display:inline;fill:#000000;fill-opacity:1;stroke:none;stroke-width:1px;stroke-linecap:butt;stroke-linejoin:miter;stroke-opacity:1"
     x="71.956619"
     y="484.28555"
     id="text3644-9"
     sodipodi:linespacing="125%"><tspan
       sodipodi:role="line"
       id="tspan3646-3"
       x="71.956619"
       y="484.28555"
       style="font-style:normal;font-variant:normal;font-weight:normal;font-stretch:normal;font-family:Verdana;-inkscape-font-specification:Verdana">D</tspan></text>
<text
     xml:space="preserve"
     style="font-style:normal;font-weight:normal;font-size:44.80881882px;line-height:125%;font-family:sans-serif;letter-spacing:0px;word-spacing:0px;display:inline;fill:#ffffff;fill-opacity:1;stroke:none;stroke-width:1px;stroke-linecap:butt;stroke-linejoin:miter;stroke-opacity:1"
     x="75.315094"
     y="736.29028"
     id="text3644-50"
     sodipodi:linespacing="125%"><tspan
       sodipodi:role="line"
       id="tspan3646-2"
       x="75.315094"
       y="736.29028"
       style="font-style:normal;font-variant:normal;font-weight:normal;font-stretch:normal;font-family:Verdana;-inkscape-font-specification:Verdana;fill:#ffffff">F</tspan></text>
<text
     xml:space="preserve"
     style="font-style:normal;font-weight:normal;font-size:44.80881882px;line-height:125%;font-family:sans-serif;letter-spacing:0px;word-spacing:0px;display:inline;fill:#ffffff;fill-opacity:1;stroke:none;stroke-width:1px;stroke-linecap:butt;stroke-linejoin:miter;stroke-opacity:1"
     x="73.061523"
     y="862.27081"
     id="text3644-94"
     sodipodi:linespacing="125%"><tspan
       sodipodi:role="line"
       id="tspan3646-35"
       x="73.061523"
       y="862.27081"
       style="font-style:normal;font-variant:normal;font-weight:normal;font-stretch:normal;font-family:Verdana;-inkscape-font-specification:Verdana;fill:#ffffff">G</tspan></text>
<text
     xml:space="preserve"
     style="font-style:normal;font-weight:normal;font-size:44.80881882px;line-height:125%;font-family:sans-serif;letter-spacing:0px;word-spacing:0px;display:inline;fill:#ffffff;fill-opacity:1;stroke:none;stroke-width:1px;stroke-linecap:butt;stroke-linejoin:miter;stroke-opacity:1"
     x="73.258438"
     y="988.29504"
     id="text3644-1"
     sodipodi:linespacing="125%"><tspan
       sodipodi:role="line"
       id="tspan3646-7"
       x="73.258438"
       y="988.29504"
       style="font-style:normal;font-variant:normal;font-weight:normal;font-stretch:normal;font-family:Verdana;-inkscape-font-specification:Verdana;fill:#ffffff">H</tspan></text>
<text
     xml:space="preserve"
     style="font-style:normal;font-weight:normal;font-size:44.80881882px;line-height:125%;font-family:sans-serif;letter-spacing:0px;word-spacing:0px;display:inline;fill:#000000;fill-opacity:1;stroke:none;stroke-width:1px;stroke-linecap:butt;stroke-linejoin:miter;stroke-opacity:1"
     x="80.664589"
     y="1114.2974"
     id="text3644-43"
     sodipodi:linespacing="125%"><tspan
       sodipodi:role="line"
       id="tspan3646-1"
       x="80.664589"
       y="1114.2974"
       style="font-style:normal;font-variant:normal;font-weight:normal;font-stretch:normal;font-family:Verdana;-inkscape-font-specification:Verdana">I</tspan></text>
<text
     xml:space="preserve"
     style="font-style:normal;font-weight:normal;font-size:44.80881882px;line-height:125%;font-family:sans-serif;letter-spacing:0px;word-spacing:0px;display:inline;fill:#000000;fill-opacity:1;stroke:none;stroke-width:1px;stroke-linecap:butt;stroke-linejoin:miter;stroke-opacity:1"
     x="81.45224"
     y="1240.0703"
     id="text3644-46"
     sodipodi:linespacing="125%"><tspan
       sodipodi:role="line"
       id="tspan3646-94"
       x="81.45224"
       y="1240.0703"
       style="font-style:normal;font-variant:normal;font-weight:normal;font-stretch:normal;font-family:Verdana;-inkscape-font-specification:Verdana">J</tspan></text>
<text
     xml:space="preserve"
     style="font-style:normal;font-weight:normal;font-size:44.80881882px;line-height:125%;font-family:sans-serif;letter-spacing:0px;word-spacing:0px;display:inline;fill:#000000;fill-opacity:1;stroke:none;stroke-width:1px;stroke-linecap:butt;stroke-linejoin:miter;stroke-opacity:1"
     x="201.44186"
     y="106.61751"
     id="text3644-2"
     sodipodi:linespacing="125%"><tspan
       sodipodi:role="line"
       id="tspan3646-26"
       x="201.44186"
       y="106.61751"
       style="font-style:normal;font-variant:normal;font-weight:normal;font-stretch:normal;font-family:Verdana;-inkscape-font-specification:Verdana">2</tspan></text>
<text
     xml:space="preserve"
     style="font-style:normal;font-weight:normal;font-size:44.80881882px;line-height:125%;font-family:sans-serif;letter-spacing:0px;word-spacing:0px;display:inline;fill:#000000;fill-opacity:1;stroke:none;stroke-width:1px;stroke-linecap:butt;stroke-linejoin:miter;stroke-opacity:1"
     x="326.74103"
     y="106.27838"
     id="text3644-41"
     sodipodi:linespacing="125%"><tspan
       sodipodi:role="line"
       id="tspan3646-28"
       x="326.74103"
       y="106.27838"
       style="font-style:normal;font-variant:normal;font-weight:normal;font-stretch:normal;font-family:Verdana;-inkscape-font-specification:Verdana">3</tspan></text>
<text
     xml:space="preserve"
     style="font-style:normal;font-weight:normal;font-size:44.80881882px;line-height:125%;font-family:sans-serif;letter-spacing:0px;word-spacing:0px;display:inline;fill:#000000;fill-opacity:1;stroke:none;stroke-width:1px;stroke-linecap:butt;stroke-linejoin:miter;stroke-opacity:1"
     x="453.54974"
     y="106.27838"
     id="text3644-8"
     sodipodi:linespacing="125%"><tspan
       sodipodi:role="line"
       id="tspan3646-92"
       x="453.54974"
       y="106.27838"
       style="font-style:normal;font-variant:normal;font-weight:normal;font-stretch:normal;font-family:Verdana;-inkscape-font-specification:Verdana">4</tspan></text>
<text
     xml:space="preserve"
     style="font-style:normal;font-weight:normal;font-size:44.80881882px;line-height:125%;font-family:sans-serif;letter-spacing:0px;word-spacing:0px;display:inline;fill:#000000;fill-opacity:1;stroke:none;stroke-width:1px;stroke-linecap:butt;stroke-linejoin:miter;stroke-opacity:1"
     x="579.15521"
     y="105.93925"
     id="text3644-88"
     sodipodi:linespacing="125%"><tspan
       sodipodi:role="line"
       id="tspan3646-8"
       x="579.15521"
       y="105.93925"
       style="font-style:normal;font-variant:normal;font-weight:normal;font-stretch:normal;font-family:Verdana;-inkscape-font-specification:Verdana">5</tspan></text>
<text
     xml:space="preserve"
     style="font-style:normal;font-weight:normal;font-size:44.80881882px;line-height:125%;font-family:sans-serif;letter-spacing:0px;word-spacing:0px;display:inline;fill:#000000;fill-opacity:1;stroke:none;stroke-width:1px;stroke-linecap:butt;stroke-linejoin:miter;stroke-opacity:1"
     x="704.84808"
     y="106.24556"
     id="text3644-68"
     sodipodi:linespacing="125%"><tspan
       sodipodi:role="line"
       id="tspan3646-38"
       x="704.84808"
       y="106.24556"
       style="font-style:normal;font-variant:normal;font-weight:normal;font-stretch:normal;font-family:Verdana;-inkscape-font-specification:Verdana">6</tspan></text>
<text
     xml:space="preserve"
     style="font-style:normal;font-weight:normal;font-size:44.80881882px;line-height:125%;font-family:sans-serif;letter-spacing:0px;word-spacing:0px;display:inline;fill:#ffffff;fill-opacity:1;stroke:none;stroke-width:1px;stroke-linecap:butt;stroke-linejoin:miter;stroke-opacity:1"
     x="830.91296"
     y="106.27838"
     id="text3644-3"
     sodipodi:linespacing="125%"><tspan
       sodipodi:role="line"
       id="tspan3646-33"
       x="830.91296"
       y="106.27838"
       style="font-style:normal;font-variant:normal;font-weight:normal;font-stretch:normal;font-family:Verdana;-inkscape-font-specification:Verdana;fill:#ffffff">7</tspan></text>
<text
     xml:space="preserve"
     style="font-style:normal;font-weight:normal;font-size:44.80881882px;line-height:125%;font-family:sans-serif;letter-spacing:0px;word-spacing:0px;display:inline;fill:#000000;fill-opacity:1;stroke:none;stroke-width:1px;stroke-linecap:butt;stroke-linejoin:miter;stroke-opacity:1"
     x="1084.0055"
     y="106.28932"
     id="text3644-689"
     sodipodi:linespacing="125%"><tspan
       sodipodi:role="line"
       id="tspan3646-06"
       x="1084.0055"
       y="106.28932"
       style="font-style:normal;font-variant:normal;font-weight:normal;font-stretch:normal;font-family:Verdana;-inkscape-font-specification:Verdana">9</tspan></text>
<text
     xml:space="preserve"
     style="font-style:normal;font-weight:normal;font-size:44.80881882px;line-height:125%;font-family:sans-serif;letter-spacing:0px;word-spacing:0px;display:inline;fill:#000000;fill-opacity:1;stroke:none;stroke-width:1px;stroke-linecap:butt;stroke-linejoin:miter;stroke-opacity:1"
     x="957.2843"
     y="106.27838"
     id="text3644-80"
     sodipodi:linespacing="125%"><tspan
       sodipodi:role="line"
       id="tspan3646-47"
       x="957.2843"
       y="106.27838"
       style="font-style:normal;font-variant:normal;font-weight:normal;font-stretch:normal;font-family:Verdana;-inkscape-font-specification:Verdana">8</tspan></text>
<text
     xml:space="preserve"
     style="font-style:normal;font-weight:normal;font-size:44.80881882px;line-height:125%;font-family:sans-serif;letter-spacing:0px;word-spacing:0px;display:inline;fill:#000000;fill-opacity:1;stroke:none;stroke-width:1px;stroke-linecap:butt;stroke-linejoin:miter;stroke-opacity:1"
     x="74.986908"
     y="610.28796"
     id="text3644-6"
     sodipodi:linespacing="125%"><tspan
       sodipodi:role="line"
       id="tspan3646-0"
       x="74.986908"
       y="610.28796"
       style="font-style:normal;font-variant:normal;font-weight:normal;font-stretch:normal;font-family:Verdana;-inkscape-font-specification:Verdana">E</tspan></text>
<g
     id="g3907"
     style="display:inline;stroke:#00ffff;stroke-width:0.58107364"
     transform="matrix(1.7209524,0,0,1.7209523,26.987999,26.988049)"><path
       inkscape:connector-curvature="0"
       id="path3836"
       d="M 9.9999999e-6,439.29997 439.3,439.29997"
       style="fill:none;fill-rule:evenodd;stroke:#00ffff;stroke-width:1.16214728;stroke-linecap:butt;stroke-linejoin:miter;stroke-miterlimit:4;stroke-dasharray:none;stroke-opacity:1" /><path
       inkscape:connector-curvature="0"
       id="path3836-3"
       d="m 439.3,-1.5e-5 0,439.299995"
       style="display:inline;fill:none;fill-rule:evenodd;stroke:#00ffff;stroke-width:1.16214728;stroke-linecap:butt;stroke-linejoin:miter;stroke-miterlimit:4;stroke-dasharray:none;stroke-opacity:1" /></g><g
     transform="matrix(1.7923527,0,0,1.7923527,-4.3781553,-4.3781409)"
     id="g3903"
     style="display:inline;stroke:#008000;stroke-width:0.55792594"><path
       inkscape:connector-curvature="0"
       id="path3836-37"
       d="m 19.273123,509.5999 490.326867,0"
       style="display:inline;fill:none;fill-rule:evenodd;stroke:#008000;stroke-width:1.11585188;stroke-linecap:butt;stroke-linejoin:miter;stroke-miterlimit:4;stroke-dasharray:none;stroke-opacity:1" /><path
       inkscape:connector-curvature="0"
       id="path3836-3-3"
       d="m 509.59998,17.499997 0,492.099903"
       style="display:inline;fill:none;fill-rule:evenodd;stroke:#008000;stroke-width:1.11585176;stroke-linecap:butt;stroke-linejoin:miter;stroke-miterlimit:4;stroke-dasharray:none;stroke-opacity:1" /></g><g
     id="g3899"
     style="display:inline;stroke:#ff00ff;stroke-width:0.57528669"
     transform="matrix(1.7382637,0,0,1.738264,26.987999,26.98787)"><path
       inkscape:connector-curvature="0"
       id="path3836-37-2"
       d="m 1.251461e-6,579.89996 579.899968748539,0"
       style="display:inline;fill:none;fill-rule:evenodd;stroke:#ff00ff;stroke-width:1.15057325;stroke-linecap:butt;stroke-linejoin:miter;stroke-miterlimit:4;stroke-dasharray:none;stroke-opacity:1" /><path
       inkscape:connector-curvature="0"
       id="path3836-3-3-6"
       d="m 579.89996,9.4287565e-5 0,579.899865712435"
       style="display:inline;fill:none;fill-rule:evenodd;stroke:#ff00ff;stroke-width:1.15057337;stroke-linecap:butt;stroke-linejoin:miter;stroke-miterlimit:4;stroke-dasharray:none;stroke-opacity:1" /></g><g
     transform="matrix(1.9555468,0,0,1.9555471,26.987999,26.987834)"
     style="display:inline;fill:#ffff00;stroke:#ffff00;stroke-width:0.5733577"
     id="g3899-5"><path
       inkscape:connector-curvature="0"
       id="path3836-37-2-2"
       d="m 1.251461e-6,579.89996 579.899968748539,0"
       style="display:inline;fill:#ffff00;fill-rule:evenodd;stroke:#ffff00;stroke-width:1.02273178;stroke-linecap:butt;stroke-linejoin:miter;stroke-miterlimit:4;stroke-dasharray:none;stroke-opacity:1" /><path
       inkscape:connector-curvature="0"
       id="path3836-3-3-6-6"
       d="m 579.89996,9.4287565e-5 0,579.899865712435"
       style="display:inline;fill:#ffff00;fill-rule:evenodd;stroke:#ffff00;stroke-width:1.02273178;stroke-linecap:butt;stroke-linejoin:miter;stroke-miterlimit:4;stroke-dasharray:none;stroke-opacity:1" /></g><g
     transform="matrix(1.4268925,0,0,1.4341269,30.166091,26.988032)"
     style="display:inline;stroke:#800080;stroke-width:0.58718604"
     id="g3907-2"><path
       inkscape:connector-curvature="0"
       id="path3836-7"
       d="M 9.9999999e-6,439.29997 439.3,439.29997"
       style="fill:none;fill-rule:evenodd;stroke:#800080;stroke-width:1.39810753;stroke-linecap:butt;stroke-linejoin:miter;stroke-miterlimit:4;stroke-dasharray:none;stroke-opacity:1" /><path
       inkscape:connector-curvature="0"
       id="path3836-3-36"
       d="m 439.3,-1.5e-5 0,439.299995"
       style="display:inline;fill:none;fill-rule:evenodd;stroke:#800080;stroke-width:1.39810753;stroke-linecap:butt;stroke-linejoin:miter;stroke-miterlimit:4;stroke-dasharray:none;stroke-opacity:1" /></g><g
     transform="matrix(1.1473016,0,0,1.1473015,26.987999,26.988049)"
     style="display:inline"
     id="g3907-2-7"><path
       inkscape:connector-curvature="0"
       id="path3836-7-2"
       d="M 9.9999999e-6,439.29997 439.3,439.29997"
       style="fill:#ffffff;fill-rule:evenodd;stroke:#d40000;stroke-width:8.71610432;stroke-linecap:butt;stroke-linejoin:miter;stroke-miterlimit:4;stroke-dasharray:8.71610432, 8.71610431999999946;stroke-opacity:1;stroke-dashoffset:0" /><path
       inkscape:connector-curvature="0"
       id="path3836-3-36-2"
       d="m 439.3,-1.5e-5 0,439.299995"
       style="display:inline;fill:none;fill-rule:evenodd;stroke:#ff0000;stroke-width:1.74322081;stroke-linecap:butt;stroke-linejoin:miter;stroke-miterlimit:4;stroke-dasharray:none;stroke-opacity:1" /></g><g
     style="display:inline"
     id="g4770"
     transform="matrix(1.7923527,0,0,1.7923527,-3.8603088,-6.1020795)"><g
       style="fill:#ff0000;fill-opacity:1"
       transform="matrix(1.5,0,0,1.5,247.50099,257.0118)"
       id="g4469"><g
         id="layer1-2"
         inkscape:label="background"
         style="display:inline;fill:#ff0000;fill-opacity:1"
         transform="translate(-346.91869,-89.716232)"><g
           transform="matrix(1.5065232,0,0,-1.5065232,181.23247,289.49311)"
           style="display:inline;fill:#ff0000;fill-opacity:1"
           id="g11463"
           clip-path="url(#clipPath11465-36)"><g
             id="g11469"
             transform="translate(113.1354,131.1259)"
             style="fill:#ff0000;fill-opacity:1"><path
               inkscape:connector-curvature="0"
               d="m 0,0 c 0,-0.818 -0.664,-1.482 -1.482,-1.482 -0.818,0 -1.482,0.664 -1.482,1.482 0,0.818 0.664,1.482 1.482,1.482 C -0.664,1.482 0,0.818 0,0"
               style="fill:#ff0000;fill-opacity:1;fill-rule:nonzero;stroke:none"
               id="path11471" /></g><g
             id="g11473"
             transform="translate(113.3182,128.0151)"
             style="fill:#ff0000;fill-opacity:1"><path
               inkscape:connector-curvature="0"
               d="m 0,0 c 0,0.744 -0.779,1.336 -1.695,1.336 -0.917,0 -1.644,-0.613 -1.644,-1.357 l 0,-2.024 3.348,0"
               style="fill:#ff0000;fill-opacity:1;fill-rule:nonzero;stroke:none"
               id="path11475" /></g></g></g><g
         id="layer2"
         inkscape:label="foreground"
         style="display:inline;fill:#ff0000;fill-opacity:1"
         transform="translate(-346.91869,-89.716232)" /></g><text
       sodipodi:linespacing="125%"
       id="text3953-47-1"
       y="270.59235"
       x="258.72699"
       style="font-style:normal;font-variant:normal;font-weight:bold;font-stretch:normal;font-size:17.5px;line-height:125%;font-family:'Courier New';-inkscape-font-specification:'Courier New Bold';letter-spacing:0px;word-spacing:0px;display:inline;fill:#ff0000;fill-opacity:1;stroke:none;stroke-width:1px;stroke-linecap:butt;stroke-linejoin:miter;stroke-opacity:1"
       xml:space="preserve"><tspan
         style="font-style:normal;font-variant:normal;font-weight:bold;font-stretch:normal;font-size:17.5px;font-family:'Courier New';-inkscape-font-specification:'Courier New Bold';fill:#ff0000;fill-opacity:1"
         y="270.59235"
         x="258.72699"
         id="tspan3955-9-5"
         sodipodi:role="line">4+</tspan></text>
</g><g
     transform="matrix(1.7923527,0,0,1.7923527,122.14209,119.90033)"
     style="display:inline;fill:#800080"
     id="g4770-1"><g
       style="fill:#800080;fill-opacity:1"
       transform="matrix(1.5,0,0,1.5,247.50099,257.0118)"
       id="g4469-2"><g
         id="layer1-2-2"
         inkscape:label="background"
         style="display:inline;fill:#800080;fill-opacity:1"
         transform="translate(-346.91869,-89.716232)"><g
           transform="matrix(1.5065232,0,0,-1.5065232,181.23247,289.49311)"
           style="display:inline;fill:#800080;fill-opacity:1"
           id="g11463-1"
           clip-path="url(#clipPath11465-36-7)"><g
             id="g11469-6"
             transform="translate(113.1354,131.1259)"
             style="fill:#800080;fill-opacity:1"><path
               inkscape:connector-curvature="0"
               d="m 0,0 c 0,-0.818 -0.664,-1.482 -1.482,-1.482 -0.818,0 -1.482,0.664 -1.482,1.482 0,0.818 0.664,1.482 1.482,1.482 C -0.664,1.482 0,0.818 0,0"
               style="fill:#800080;fill-opacity:1;fill-rule:nonzero;stroke:none"
               id="path11471-2" /></g><g
             id="g11473-0"
             transform="translate(113.3182,128.0151)"
             style="fill:#800080;fill-opacity:1"><path
               inkscape:connector-curvature="0"
               d="m 0,0 c 0,0.744 -0.779,1.336 -1.695,1.336 -0.917,0 -1.644,-0.613 -1.644,-1.357 l 0,-2.024 3.348,0"
               style="fill:#800080;fill-opacity:1;fill-rule:nonzero;stroke:none"
               id="path11475-2" /></g></g></g><g
         id="layer2-2"
         inkscape:label="foreground"
         style="display:inline;fill:#800080;fill-opacity:1"
         transform="translate(-346.91869,-89.716232)" /></g><text
       sodipodi:linespacing="125%"
       id="text3953-47-1-9"
       y="270.59235"
       x="258.72699"
       style="font-style:normal;font-variant:normal;font-weight:bold;font-stretch:normal;font-size:17.5px;line-height:125%;font-family:'Courier New';-inkscape-font-specification:'Courier New Bold';letter-spacing:0px;word-spacing:0px;display:inline;fill:#800080;fill-opacity:1;stroke:none;stroke-width:1px;stroke-linecap:butt;stroke-linejoin:miter;stroke-opacity:1"
       xml:space="preserve"><tspan
         style="font-style:normal;font-variant:normal;font-weight:bold;font-stretch:normal;font-size:17.5px;font-family:'Courier New';-inkscape-font-specification:'Courier New Bold';fill:#800080;fill-opacity:1"
         y="270.59235"
         x="258.72699"
         id="tspan3955-9-5-7"
         sodipodi:role="line">5+</tspan></text>
</g><g
     transform="matrix(1.7923527,0,0,1.7923527,248.1445,245.90269)"
     style="display:inline;fill:#00ffff"
     id="g4770-5"><g
       style="fill:#00ffff;fill-opacity:1"
       transform="matrix(1.5,0,0,1.5,247.50099,257.0118)"
       id="g4469-6"><g
         id="layer1-2-1"
         inkscape:label="background"
         style="display:inline;fill:#00ffff;fill-opacity:1"
         transform="translate(-346.91869,-89.716232)"><g
           transform="matrix(1.5065232,0,0,-1.5065232,181.23247,289.49311)"
           style="display:inline;fill:#00ffff;fill-opacity:1"
           id="g11463-4"
           clip-path="url(#clipPath11465-36-4)"><g
             id="g11469-0"
             transform="translate(113.1354,131.1259)"
             style="fill:#00ffff;fill-opacity:1"><path
               inkscape:connector-curvature="0"
               d="m 0,0 c 0,-0.818 -0.664,-1.482 -1.482,-1.482 -0.818,0 -1.482,0.664 -1.482,1.482 0,0.818 0.664,1.482 1.482,1.482 C -0.664,1.482 0,0.818 0,0"
               style="fill:#00ffff;fill-opacity:1;fill-rule:nonzero;stroke:none"
               id="path11471-3" /></g><g
             id="g11473-1"
             transform="translate(113.3182,128.0151)"
             style="fill:#00ffff;fill-opacity:1"><path
               inkscape:connector-curvature="0"
               d="m 0,0 c 0,0.744 -0.779,1.336 -1.695,1.336 -0.917,0 -1.644,-0.613 -1.644,-1.357 l 0,-2.024 3.348,0"
               style="fill:#00ffff;fill-opacity:1;fill-rule:nonzero;stroke:none"
               id="path11475-27" /></g></g></g><g
         id="layer2-7"
         inkscape:label="foreground"
         style="display:inline;fill:#00ffff;fill-opacity:1"
         transform="translate(-346.91869,-89.716232)" /></g><text
       sodipodi:linespacing="125%"
       id="text3953-47-1-98"
       y="270.59235"
       x="258.72699"
       style="font-style:normal;font-variant:normal;font-weight:bold;font-stretch:normal;font-size:17.5px;line-height:125%;font-family:'Courier New';-inkscape-font-specification:'Courier New Bold';letter-spacing:0px;word-spacing:0px;display:inline;fill:#00ffff;fill-opacity:1;stroke:none;stroke-width:1px;stroke-linecap:butt;stroke-linejoin:miter;stroke-opacity:1"
       xml:space="preserve"><tspan
         style="font-style:normal;font-variant:normal;font-weight:bold;font-stretch:normal;font-size:17.5px;font-family:'Courier New';-inkscape-font-specification:'Courier New Bold';fill:#00ffff;fill-opacity:1"
         y="270.59235"
         x="258.72699"
         id="tspan3955-9-5-1"
         sodipodi:role="line">6+</tspan></text>
</g><g
     transform="matrix(1.7923527,0,0,1.7923527,374.14685,371.90507)"
     style="display:inline;fill:#008000"
     id="g4770-6"><g
       style="fill:#008000;fill-opacity:1"
       transform="matrix(1.5,0,0,1.5,247.50099,257.0118)"
       id="g4469-0"><g
         id="layer1-2-10"
         inkscape:label="background"
         style="display:inline;fill:#008000;fill-opacity:1"
         transform="translate(-346.91869,-89.716232)"><g
           transform="matrix(1.5065232,0,0,-1.5065232,181.23247,289.49311)"
           style="display:inline;fill:#008000;fill-opacity:1"
           id="g11463-2"
           clip-path="url(#clipPath11465-36-0)"><g
             id="g11469-5"
             transform="translate(113.1354,131.1259)"
             style="fill:#008000;fill-opacity:1"><path
               inkscape:connector-curvature="0"
               d="m 0,0 c 0,-0.818 -0.664,-1.482 -1.482,-1.482 -0.818,0 -1.482,0.664 -1.482,1.482 0,0.818 0.664,1.482 1.482,1.482 C -0.664,1.482 0,0.818 0,0"
               style="fill:#008000;fill-opacity:1;fill-rule:nonzero;stroke:none"
               id="path11471-1" /></g><g
             id="g11473-9"
             transform="translate(113.3182,128.0151)"
             style="fill:#008000;fill-opacity:1"><path
               inkscape:connector-curvature="0"
               d="m 0,0 c 0,0.744 -0.779,1.336 -1.695,1.336 -0.917,0 -1.644,-0.613 -1.644,-1.357 l 0,-2.024 3.348,0"
               style="fill:#008000;fill-opacity:1;fill-rule:nonzero;stroke:none"
               id="path11475-7" /></g></g></g><g
         id="layer2-1"
         inkscape:label="foreground"
         style="display:inline;fill:#008000;fill-opacity:1"
         transform="translate(-346.91869,-89.716232)" /></g><text
       sodipodi:linespacing="125%"
       id="text3953-47-1-3"
       y="270.59235"
       x="258.72699"
       style="font-style:normal;font-variant:normal;font-weight:bold;font-stretch:normal;font-size:17.5px;line-height:125%;font-family:'Courier New';-inkscape-font-specification:'Courier New Bold';letter-spacing:0px;word-spacing:0px;display:inline;fill:#008000;fill-opacity:1;stroke:none;stroke-width:1px;stroke-linecap:butt;stroke-linejoin:miter;stroke-opacity:1"
       xml:space="preserve"><tspan
         style="font-style:normal;font-variant:normal;font-weight:bold;font-stretch:normal;font-size:17.5px;font-family:'Courier New';-inkscape-font-specification:'Courier New Bold';fill:#008000;fill-opacity:1"
         y="270.59235"
         x="258.72699"
         id="tspan3955-9-5-12"
         sodipodi:role="line">7+</tspan></text>
</g><g
     transform="matrix(1.7923527,0,0,1.7923527,500.14919,497.90739)"
     style="display:inline;fill:#ff00ff"
     id="g4770-7"><g
       style="fill:#ff00ff;fill-opacity:1"
       transform="matrix(1.5,0,0,1.5,247.50099,257.0118)"
       id="g4469-4"><g
         id="layer1-2-9"
         inkscape:label="background"
         style="display:inline;fill:#ff00ff;fill-opacity:1"
         transform="translate(-346.91869,-89.716232)"><g
           transform="matrix(1.5065232,0,0,-1.5065232,181.23247,289.49311)"
           style="display:inline;fill:#ff00ff;fill-opacity:1"
           id="g11463-24"
           clip-path="url(#clipPath11465-36-06)"><g
             id="g11469-4"
             transform="translate(113.1354,131.1259)"
             style="fill:#ff00ff;fill-opacity:1"><path
               inkscape:connector-curvature="0"
               d="m 0,0 c 0,-0.818 -0.664,-1.482 -1.482,-1.482 -0.818,0 -1.482,0.664 -1.482,1.482 0,0.818 0.664,1.482 1.482,1.482 C -0.664,1.482 0,0.818 0,0"
               style="fill:#ff00ff;fill-opacity:1;fill-rule:nonzero;stroke:none"
               id="path11471-5" /></g><g
             id="g11473-91"
             transform="translate(113.3182,128.0151)"
             style="fill:#ff00ff;fill-opacity:1"><path
               inkscape:connector-curvature="0"
               d="m 0,0 c 0,0.744 -0.779,1.336 -1.695,1.336 -0.917,0 -1.644,-0.613 -1.644,-1.357 l 0,-2.024 3.348,0"
               style="fill:#ff00ff;fill-opacity:1;fill-rule:nonzero;stroke:none"
               id="path11475-28" /></g></g></g><g
         id="layer2-9"
         inkscape:label="foreground"
         style="display:inline;fill:#ff00ff;fill-opacity:1"
         transform="translate(-346.91869,-89.716232)" /></g><text
       sodipodi:linespacing="125%"
       id="text3953-47-1-6"
       y="270.59235"
       x="258.72699"
       style="font-style:normal;font-variant:normal;font-weight:bold;font-stretch:normal;font-size:17.5px;line-height:125%;font-family:'Courier New';-inkscape-font-specification:'Courier New Bold';letter-spacing:0px;word-spacing:0px;display:inline;fill:#ff00ff;fill-opacity:1;stroke:none;stroke-width:1px;stroke-linecap:butt;stroke-linejoin:miter;stroke-opacity:1"
       xml:space="preserve"><tspan
         style="font-style:normal;font-variant:normal;font-weight:bold;font-stretch:normal;font-size:17.5px;font-family:'Courier New';-inkscape-font-specification:'Courier New Bold';fill:#ff00ff;fill-opacity:1"
         y="270.59235"
         x="258.72699"
         id="tspan3955-9-5-0"
         sodipodi:role="line">8+</tspan></text>
</g><g
     transform="matrix(1.7923527,0,0,1.7923527,626.15157,623.90986)"
     style="display:inline;fill:#ffff00"
     id="g4770-9"><g
       style="fill:#ffff00;fill-opacity:1"
       transform="matrix(1.5,0,0,1.5,247.50099,257.0118)"
       id="g4469-45"><g
         id="layer1-2-4"
         inkscape:label="background"
         style="display:inline;fill:#ffff00;fill-opacity:1"
         transform="translate(-346.91869,-89.716232)"><g
           transform="matrix(1.5065232,0,0,-1.5065232,181.23247,289.49311)"
           style="display:inline;fill:#ffff00;fill-opacity:1"
           id="g11463-6"
           clip-path="url(#clipPath11465-36-6)"><g
             id="g11469-63"
             transform="translate(113.1354,131.1259)"
             style="fill:#ffff00;fill-opacity:1"><path
               inkscape:connector-curvature="0"
               d="m 0,0 c 0,-0.818 -0.664,-1.482 -1.482,-1.482 -0.818,0 -1.482,0.664 -1.482,1.482 0,0.818 0.664,1.482 1.482,1.482 C -0.664,1.482 0,0.818 0,0"
               style="fill:#ffff00;fill-opacity:1;fill-rule:nonzero;stroke:none"
               id="path11471-9" /></g><g
             id="g11473-95"
             transform="translate(113.3182,128.0151)"
             style="fill:#ffff00;fill-opacity:1"><path
               inkscape:connector-curvature="0"
               d="m 0,0 c 0,0.744 -0.779,1.336 -1.695,1.336 -0.917,0 -1.644,-0.613 -1.644,-1.357 l 0,-2.024 3.348,0"
               style="fill:#ffff00;fill-opacity:1;fill-rule:nonzero;stroke:none"
               id="path11475-21" /></g></g></g><g
         id="layer2-3"
         inkscape:label="foreground"
         style="display:inline;fill:#ffff00;fill-opacity:1"
         transform="translate(-346.91869,-89.716232)" /></g><text
       sodipodi:linespacing="125%"
       id="text3953-47-1-0"
       y="270.59235"
       x="258.72699"
       style="font-style:normal;font-variant:normal;font-weight:bold;font-stretch:normal;font-size:17.5px;line-height:125%;font-family:'Courier New';-inkscape-font-specification:'Courier New Bold';letter-spacing:0px;word-spacing:0px;display:inline;fill:#ffff00;fill-opacity:1;stroke:none;stroke-width:1px;stroke-linecap:butt;stroke-linejoin:miter;stroke-opacity:1"
       xml:space="preserve"><tspan
         style="font-style:normal;font-variant:normal;font-weight:bold;font-stretch:normal;font-size:17.5px;font-family:'Courier New';-inkscape-font-specification:'Courier New Bold';fill:#ffff00;fill-opacity:1"
         y="270.59235"
         x="258.72699"
         id="tspan3955-9-5-9"
         sodipodi:role="line">9+</tspan></text>
</g><g
     transform="matrix(1.7923527,0,0,1.7923527,742.75024,749.91223)"
     style="display:inline;fill:#000000;fill-opacity:1"
     id="g4770-3"><g
       style="fill:#000000;fill-opacity:1"
       transform="matrix(1.5,0,0,1.5,247.50099,257.0118)"
       id="g4469-458"><g
         id="layer1-2-5"
         inkscape:label="background"
         style="display:inline;fill:#000000;fill-opacity:1"
         transform="translate(-346.91869,-89.716232)"><g
           transform="matrix(1.5065232,0,0,-1.5065232,181.23247,289.49311)"
           style="display:inline;fill:#000000;fill-opacity:1"
           id="g11463-7"
           clip-path="url(#clipPath11465-36-9)"><g
             id="g11469-3"
             transform="translate(113.1354,131.1259)"
             style="fill:#000000;fill-opacity:1"><path
               inkscape:connector-curvature="0"
               d="m 0,0 c 0,-0.818 -0.664,-1.482 -1.482,-1.482 -0.818,0 -1.482,0.664 -1.482,1.482 0,0.818 0.664,1.482 1.482,1.482 C -0.664,1.482 0,0.818 0,0"
               style="fill:#000000;fill-opacity:1;fill-rule:nonzero;stroke:none"
               id="path11471-38" /></g><g
             id="g11473-955"
             transform="translate(113.3182,128.0151)"
             style="fill:#000000;fill-opacity:1"><path
               inkscape:connector-curvature="0"
               d="m 0,0 c 0,0.744 -0.779,1.336 -1.695,1.336 -0.917,0 -1.644,-0.613 -1.644,-1.357 l 0,-2.024 3.348,0"
               style="fill:#000000;fill-opacity:1;fill-rule:nonzero;stroke:none"
               id="path11475-3" /></g></g></g><g
         id="layer2-8"
         inkscape:label="foreground"
         style="display:inline;fill:#000000;fill-opacity:1"
         transform="translate(-346.91869,-89.716232)" /></g><text
       sodipodi:linespacing="125%"
       id="text3953-47-1-60"
       y="270.59235"
       x="258.72699"
       style="font-style:normal;font-variant:normal;font-weight:bold;font-stretch:normal;font-size:17.5px;line-height:125%;font-family:'Courier New';-inkscape-font-specification:'Courier New Bold';letter-spacing:0px;word-spacing:0px;display:inline;fill:#000000;fill-opacity:1;stroke:none;stroke-width:1px;stroke-linecap:butt;stroke-linejoin:miter;stroke-opacity:1"
       xml:space="preserve"><tspan
         style="font-style:normal;font-variant:normal;font-weight:bold;font-stretch:normal;font-size:17.5px;font-family:'Courier New';-inkscape-font-specification:'Courier New Bold';fill:#000000;fill-opacity:1"
         y="270.59235"
         x="258.72699"
         id="tspan3955-9-5-3"
         sodipodi:role="line">10+</tspan></text>
</g><rect
     style="color:#000000;clip-rule:nonzero;display:inline;overflow:visible;visibility:visible;opacity:1;isolation:auto;mix-blend-mode:normal;color-interpolation:sRGB;color-interpolation-filters:linearRGB;solid-color:#000000;solid-opacity:1;fill:none;fill-opacity:1;fill-rule:nonzero;stroke:#000000;stroke-width:1.99999988;stroke-linecap:butt;stroke-linejoin:miter;stroke-miterlimit:4;stroke-dasharray:none;stroke-dashoffset:0;stroke-opacity:1;color-rendering:auto;image-rendering:auto;shape-rendering:auto;text-rendering:auto;enable-background:accumulate"
     id="rect5013"
     width="1256.8458"
     height="1258.2852"
     x="30.166056"
     y="26.988001" /><text
     xml:space="preserve"
     style="font-style:normal;font-weight:normal;font-size:44.80881882px;line-height:125%;font-family:sans-serif;letter-spacing:0px;word-spacing:0px;display:inline;fill:#000000;fill-opacity:1;stroke:none;stroke-width:1px;stroke-linecap:butt;stroke-linejoin:miter;stroke-opacity:1"
     x="1194.0428"
     y="106.26744"
     id="text3644-87"
     sodipodi:linespacing="125%"><tspan
       sodipodi:role="line"
       id="tspan3646-90"
       x="1194.0428"
       y="106.26744"
       style="font-style:normal;font-variant:normal;font-weight:normal;font-stretch:normal;font-family:Verdana;-inkscape-font-specification:Verdana">10</tspan></text>
</svg>